{
    "app-id" : "org.jonah.Gasstation",
    "runtime" : "org.gnome.Sdk",
    "runtime-version" : "master",
    "sdk" : "org.gnome.Sdk",
    "command" : "gasstation",
    "desktop-file-name-prefix" : "(Development) ",
    "tags" : [
        "devel",
        "development",
        "nightly"
    ],
    "finish-args" : [
        "--device=dri",
        "--share=network",
        "--share=ipc",
        "--socket=wayland",
        "--socket=x11",
        "--socket=session-bus",
        "--filesystem=home",
        "--talk-name=org.gnome.SessionManager",
        "--talk-name=org.xfce.SessionManager",
        "--talk-name=org.freedesktop.secrets",
        "--talk-name=org.gio.vfs",
        "--talk-name=org.freedesktop.Notifications",
        "--talk-name=org.gtk.vfs.*",
        "--filesystem=xdg-run/dconf",
        "--filesystem=~/.config/dconf:ro",
        "--talk-name=ca.desrt.dconf",
        "--talk-name=org.freedesktop.Flatpak",
        "--own-name=org.jonah.GasStation",
        "--env=DCONF_USER_CONFIG_DIR=.config/dconf"
    ],
    "build-options" : {
        "build-args" : [
            "--share=network"
        ],
        "cflags" : "-O2 -g",
        "cxxflags" : "-O2 -g",
        "env" : {
            "GI_TYPELIB_PATH" : "/app/lib/girepository-1.0/",
            "V" : "1",
            "PYTHONPATH" : "/app/lib/python3.7/site-packages"
        }
    },
    "cleanup" : [
        "/include",
        "/lib/pkgconfig",
        "/man",
        "/share/doc",
        "/share/gtk-doc",
        "/share/man",
        "/share/pkgconfig",
        "*.la",
        "*.a"
    ],
    "modules" : [
        "pypi-dependencies.json",
        {
            "name" : "gasstation",
            "buildsystem" : "meson",
            "config-opts" : [
                "--libdir=lib",
                "--backend=ninja"
            ],
            "builddir" : true,
            "sources" : [
                {
                    "type" : "git",
                    "url" : "https://gitlab.com/jonahkaks/GasStation.git"
                }
            ]
        }
    ]
}
