{
    "name": "pypi-dependencies",
    "buildsystem": "simple",
    "build-commands": [],
    "modules": [
        {
            "name": "python3-psycopg2-binary",
            "buildsystem": "simple",
            "build-commands": [
                "pip3 install --verbose --exists-action=i --no-index --find-links=\"file://${PWD}\" --prefix=${FLATPAK_DEST} \"psycopg2-binary==2.9.3\" --no-build-isolation"
            ],
            "sources": []
        },
        {
            "name": "python3-SQLAlchemy",
            "buildsystem": "simple",
            "build-commands": [
                "pip3 install --verbose --exists-action=i --no-index --find-links=\"file://${PWD}\" --prefix=${FLATPAK_DEST} \"SQLAlchemy==1.4.39\" --no-build-isolation"
            ],
            "sources": []
        },
        {
            "name": "python3-sqlalchemy_utils",
            "buildsystem": "simple",
            "build-commands": [
                "pip3 install --verbose --exists-action=i --no-index --find-links=\"file://${PWD}\" --prefix=${FLATPAK_DEST} \"sqlalchemy_utils==0.38.2\" --no-build-isolation"
            ],
            "sources": []
        },
        {
            "name": "python3-phonenumbers",
            "buildsystem": "simple",
            "build-commands": [
                "pip3 install --verbose --exists-action=i --no-index --find-links=\"file://${PWD}\" --prefix=${FLATPAK_DEST} \"phonenumbers==8.12.50\" --no-build-isolation"
            ],
            "sources": []
        },
        {
            "name": "python3-nameparser",
            "buildsystem": "simple",
            "build-commands": [
                "pip3 install --verbose --exists-action=i --no-index --find-links=\"file://${PWD}\" --prefix=${FLATPAK_DEST} \"nameparser==1.1.1\" --no-build-isolation"
            ],
            "sources": []
        },
        {
            "name": "python3-pytz",
            "buildsystem": "simple",
            "build-commands": [
                "pip3 install --verbose --exists-action=i --no-index --find-links=\"file://${PWD}\" --prefix=${FLATPAK_DEST} \"pytz==2022.1\" --no-build-isolation"
            ],
            "sources": []
        },
        {
            "name": "python3-tzlocal",
            "buildsystem": "simple",
            "build-commands": [
                "pip3 install --verbose --exists-action=i --no-index --find-links=\"file://${PWD}\" --prefix=${FLATPAK_DEST} \"tzlocal==4.2\" --no-build-isolation"
            ],
            "sources": []
        },
        {
            "name": "python3-pydal",
            "buildsystem": "simple",
            "build-commands": [
                "pip3 install --verbose --exists-action=i --no-index --find-links=\"file://${PWD}\" --prefix=${FLATPAK_DEST} \"pydal==20220609.1\" --no-build-isolation"
            ],
            "sources": []
        },
        {
            "name": "python3-yatl",
            "buildsystem": "simple",
            "build-commands": [
                "pip3 install --verbose --exists-action=i --no-index --find-links=\"file://${PWD}\" --prefix=${FLATPAK_DEST} \"yatl==20211217.1\" --no-build-isolation"
            ],
            "sources": []
        },
        {
            "name": "python3-requests",
            "buildsystem": "simple",
            "build-commands": [
                "pip3 install --verbose --exists-action=i --no-index --find-links=\"file://${PWD}\" --prefix=${FLATPAK_DEST} \"requests==2.28.0\" --no-build-isolation"
            ],
            "sources": []
        },
        {
            "name": "python3-reportlab",
            "buildsystem": "simple",
            "build-commands": [
                "pip3 install --verbose --exists-action=i --no-index --find-links=\"file://${PWD}\" --prefix=${FLATPAK_DEST} \"reportlab==3.6.10\" --no-build-isolation"
            ],
            "sources": []
        },
        {
            "name": "python3-pandas",
            "buildsystem": "simple",
            "build-commands": [
                "pip3 install --verbose --exists-action=i --no-index --find-links=\"file://${PWD}\" --prefix=${FLATPAK_DEST} \"pandas==1.4.3\" --no-build-isolation"
            ],
            "sources": []
        },
        {
            "name": "python3-typing",
            "buildsystem": "simple",
            "build-commands": [
                "pip3 install --verbose --exists-action=i --no-index --find-links=\"file://${PWD}\" --prefix=${FLATPAK_DEST} \"typing~=3.7.4.3\" --no-build-isolation"
            ],
            "sources": []
        },
        {
            "name": "python3-python-dateutil",
            "buildsystem": "simple",
            "build-commands": [
                "pip3 install --verbose --exists-action=i --no-index --find-links=\"file://${PWD}\" --prefix=${FLATPAK_DEST} \"python-dateutil==2.8.2\" --no-build-isolation"
            ],
            "sources": []
        },
        {
            "name": "python3-alembic",
            "buildsystem": "simple",
            "build-commands": [
                "pip3 install --verbose --exists-action=i --no-index --find-links=\"file://${PWD}\" --prefix=${FLATPAK_DEST} \"alembic==1.8.0\" --no-build-isolation"
            ],
            "sources": []
        },
        {
            "name": "python3-odfpy",
            "buildsystem": "simple",
            "build-commands": [
                "pip3 install --verbose --exists-action=i --no-index --find-links=\"file://${PWD}\" --prefix=${FLATPAK_DEST} \"odfpy==1.4.1\" --no-build-isolation"
            ],
            "sources": []
        },
        {
            "name": "python3-PyGObject",
            "buildsystem": "simple",
            "build-commands": [
                "pip3 install --verbose --exists-action=i --no-index --find-links=\"file://${PWD}\" --prefix=${FLATPAK_DEST} \"PyGObject==3.42.1\" --no-build-isolation"
            ],
            "sources": []
        },
        {
            "name": "python3-PriceDb",
            "buildsystem": "simple",
            "build-commands": [
                "pip3 install --verbose --exists-action=i --no-index --find-links=\"file://${PWD}\" --prefix=${FLATPAK_DEST} \"PriceDb==2.11.0\" --no-build-isolation"
            ],
            "sources": []
        },
        {
            "name": "python3-finance-quote-python",
            "buildsystem": "simple",
            "build-commands": [
                "pip3 install --verbose --exists-action=i --no-index --find-links=\"file://${PWD}\" --prefix=${FLATPAK_DEST} \"finance-quote-python==1.8.7\" --no-build-isolation"
            ],
            "sources": []
        }
    ]
}
